0.000000000000000000e+00 1.000000000000000021e-02 1.100320579740470374e-03 2.836508870155911690e-04 4.264990310035429646e-05 4.692300082611846560e-04
1.000000000000000021e-02 2.000000000000000042e-02 1.183419516508064408e-03 3.000079320029107495e-04 4.544349307619661098e-05 5.028196658427508880e-04
2.000000000000000042e-02 2.999999999999999889e-02 1.273816020034547686e-03 3.193789039606166917e-04 4.906511910880541821e-05 5.400860653239125718e-04
2.999999999999999889e-02 4.000000000000000083e-02 1.372857391505887719e-03 3.386830236906822789e-04 5.209038918223121896e-05 5.799530872771234847e-04
4.000000000000000083e-02 5.000000000000000278e-02 1.488790721822699304e-03 3.598307341290541534e-04 5.564770040179481430e-05 6.261376809059842913e-04
5.000000000000000278e-02 5.999999999999999778e-02 1.606788288431518523e-03 3.817900246038247441e-04 5.971409818801434402e-05 6.734411391602400723e-04
5.999999999999999778e-02 7.000000000000000666e-02 1.734396379222232203e-03 4.055988333448126053e-04 6.362055271057654327e-05 7.244523434272834598e-04
7.000000000000000666e-02 8.000000000000000167e-02 1.871035464462704034e-03 4.335190343661362872e-04 6.921123432784049591e-05 7.803642095787650121e-04
8.000000000000000167e-02 8.999999999999999667e-02 2.025971375930645663e-03 4.613270214305835275e-04 7.353730275416438733e-05 8.417893124513265444e-04
8.999999999999999667e-02 1.000000000000000056e-01 2.193867393475801807e-03 4.914494581551124034e-04 7.934974062742724123e-05 9.087275004945006771e-04
1.000000000000000056e-01 1.100000000000000006e-01 2.362193176106195010e-03 5.242640960822398007e-04 8.554933777259777778e-05 9.768421244821675307e-04
1.100000000000000006e-01 1.199999999999999956e-01 2.564932584158759795e-03 5.614621972975512203e-04 9.139615123140882875e-05 1.057554398145218229e-03
1.199999999999999956e-01 1.300000000000000044e-01 2.776150331234336199e-03 5.984058848303554570e-04 9.934099854795175723e-05 1.141657680284883679e-03
1.300000000000000044e-01 1.400000000000000133e-01 3.007084990468738422e-03 6.375774084709514644e-04 1.058371004073004176e-04 1.232463194904566059e-03
1.400000000000000133e-01 1.499999999999999944e-01 3.261146908890571235e-03 6.836975725474273664e-04 1.141161066584083455e-04 1.333761881885803897e-03
1.499999999999999944e-01 1.600000000000000033e-01 3.538971404001812603e-03 7.300304842766068818e-04 1.224766759531666744e-04 1.442922228122369647e-03
1.600000000000000033e-01 1.700000000000000122e-01 3.849191297871617200e-03 7.837308539944024899e-04 1.330782718908340816e-04 1.565898650535771765e-03
1.700000000000000122e-01 1.799999999999999933e-01 4.178970750696580153e-03 8.400926904148634834e-04 1.429520377882272282e-04 1.695914677983865635e-03
1.799999999999999933e-01 1.900000000000000022e-01 4.543848177188165686e-03 9.000718228257913438e-04 1.530064954654513731e-04 1.838673949444734725e-03
1.900000000000000022e-01 2.000000000000000111e-01 4.939335575205771461e-03 9.677416706778488049e-04 1.659819840116951470e-04 1.995003908515193165e-03
2.000000000000000111e-01 2.099999999999999922e-01 5.366702257607310587e-03 1.036316138786315139e-03 1.795400271724536373e-04 2.162248581674822319e-03
2.099999999999999922e-01 2.200000000000000011e-01 5.839102152813195785e-03 1.116655677558081291e-03 1.915907022978864855e-04 2.347653996152756963e-03
2.200000000000000011e-01 2.300000000000000100e-01 6.348378105439192974e-03 1.201075432643621248e-03 2.088150926340337163e-04 2.548221627798864363e-03
2.300000000000000100e-01 2.399999999999999911e-01 6.900690562855666711e-03 1.295954690603066690e-03 2.246565355720726376e-04 2.765900491691585406e-03
2.399999999999999911e-01 2.500000000000000000e-01 7.505954128894735608e-03 1.393135812988812545e-03 2.421006739702239797e-04 3.002191420183644363e-03
2.500000000000000000e-01 2.600000000000000089e-01 8.150398493718166715e-03 1.506418041070556714e-03 2.612251088485410410e-04 3.257263879959170459e-03
2.600000000000000089e-01 2.700000000000000178e-01 8.851298982742245719e-03 1.627813407023992942e-03 2.830123477094494155e-04 3.534405373242382759e-03
2.700000000000000178e-01 2.800000000000000266e-01 9.614787686106509787e-03 1.765615244255877569e-03 3.044838464691803173e-04 3.837405140049085072e-03
2.800000000000000266e-01 2.899999999999999800e-01 1.043665706204015622e-02 1.910667635902461338e-03 3.287317360733318103e-04 4.162850761790795433e-03
2.899999999999999800e-01 2.999999999999999889e-01 1.132828084592649859e-02 2.074973988019134744e-03 3.557379223837136379e-04 4.518489289717314041e-03
2.999999999999999889e-01 3.099999999999999978e-01 1.225892223689680795e-02 2.249291637228553829e-03 3.850597656715788611e-04 4.891021664551707671e-03
3.099999999999999978e-01 3.200000000000000067e-01 1.328532094829122483e-02 2.448389140274231934e-03 4.154907760667921231e-04 5.303544514594895655e-03
3.200000000000000067e-01 3.300000000000000155e-01 1.437494373003169769e-02 2.666759540187115841e-03 4.472598509764271098e-04 5.743654800911258268e-03
3.300000000000000155e-01 3.400000000000000244e-01 1.552402421542119389e-02 2.908237815953894877e-03 4.852350154495529175e-04 6.213052427295875924e-03
3.400000000000000244e-01 3.500000000000000333e-01 1.673937264001414474e-02 3.173278573447660747e-03 5.215962322390907359e-04 6.711480067747090626e-03
3.500000000000000333e-01 3.599999999999999867e-01 1.798290353282532353e-02 3.474007423403005241e-03 5.642599092271760857e-04 7.233242387737173935e-03
3.599999999999999867e-01 3.699999999999999956e-01 1.923673125415916590e-02 3.803112217601393921e-03 6.092136879038665158e-04 7.768685023197898463e-03
3.699999999999999956e-01 3.800000000000000044e-01 2.048411218901355010e-02 4.172456542678728945e-03 6.585330183472338800e-04 8.317028211273384819e-03
3.800000000000000044e-01 3.900000000000000133e-01 2.164116913486393429e-02 4.577818385055722541e-03 7.126554067460747280e-04 8.849598697831428246e-03
3.900000000000000133e-01 4.000000000000000222e-01 2.273934158791494214e-02 5.023026402320290677e-03 7.669237418447854464e-04 9.376385591452405383e-03
4.000000000000000222e-01 4.100000000000000311e-01 2.372073857041582384e-02 5.521346083797315334e-03 8.287316681041674528e-04 9.885430896489169963e-03
4.100000000000000311e-01 4.199999999999999845e-01 2.459686425374289775e-02 6.067852849628960384e-03 8.935915672974220408e-04 1.037732411196452126e-02
4.199999999999999845e-01 4.299999999999999933e-01 2.533425865320038453e-02 6.672458477781642409e-03 9.629998739317477971e-04 1.084497303383715784e-02
4.299999999999999933e-01 4.400000000000000022e-01 2.589290201685072804e-02 7.312783989651425696e-03 1.038437249945658048e-03 1.126827543571683188e-02
4.400000000000000022e-01 4.500000000000000111e-01 2.629757962469984889e-02 7.997690462503408843e-03 1.120825545297925944e-03 1.165861928476238582e-02
4.500000000000000111e-01 4.600000000000000200e-01 2.650769853885785038e-02 8.753743315938177991e-03 1.211677938021762241e-03 1.201218973768142066e-02
4.600000000000000200e-01 4.700000000000000289e-01 2.652278100784728060e-02 9.537264852953654046e-03 1.305235906970635606e-03 1.231219830037629664e-02
4.700000000000000289e-01 4.799999999999999822e-01 2.638267616770353929e-02 1.037430858176799711e-02 1.406645682574648700e-03 1.258216042209697912e-02
4.799999999999999822e-01 4.899999999999999911e-01 2.613335923110053638e-02 1.123037888257645903e-02 1.515680494922321160e-03 1.282541513040898196e-02
4.899999999999999911e-01 5.000000000000000000e-01 2.576014277992033294e-02 1.212277049582547762e-02 1.632318078938203203e-03 1.304297444518421820e-02
5.000000000000000000e-01 5.100000000000000089e-01 2.524907297319032087e-02 1.301104786018504600e-02 1.758052958917316611e-03 1.321718208075208824e-02
5.100000000000000089e-01 5.200000000000000178e-01 2.463361982423133839e-02 1.392897858259449680e-02 1.894932658179728380e-03 1.337102031059668114e-02
5.200000000000000178e-01 5.300000000000000266e-01 2.394862327208920061e-02 1.484583681480044527e-02 2.034945579771088586e-03 1.350283550983781035e-02
5.300000000000000266e-01 5.400000000000000355e-01 2.318955414470924570e-02 1.575780243885361795e-02 2.193115390618662671e-03 1.361492536528906110e-02
5.400000000000000355e-01 5.500000000000000444e-01 2.240192324082952366e-02 1.666925431011136854e-02 2.360404108363481357e-03 1.372058464614135144e-02
5.500000000000000444e-01 5.600000000000000533e-01 2.155040959076792023e-02 1.756307510362179261e-02 2.534986981917637834e-03 1.380190222163269441e-02
5.600000000000000533e-01 5.700000000000000622e-01 2.065945170576647186e-02 1.843968311661100049e-02 2.730859973372586503e-03 1.387171817513570445e-02
5.700000000000000622e-01 5.799999999999999600e-01 1.967005437414710498e-02 1.933545039467865490e-02 2.940386327972359468e-03 1.392042174463414481e-02
5.799999999999999600e-01 5.899999999999999689e-01 1.867246030475773130e-02 2.019443906551366893e-02 3.163580142911054990e-03 1.395868151601427007e-02
5.899999999999999689e-01 5.999999999999999778e-01 1.762154680042147398e-02 2.101492015291129417e-02 3.401555813556237252e-03 1.397155099438510649e-02
5.999999999999999778e-01 6.099999999999999867e-01 1.655799726879944589e-02 2.177538982446304561e-02 3.658432023164014633e-03 1.396647483043357910e-02
6.099999999999999867e-01 6.199999999999999956e-01 1.547492204550004156e-02 2.244664709134296110e-02 3.934243995044009456e-03 1.393139173674061253e-02
6.199999999999999956e-01 6.300000000000000044e-01 1.440377404085438351e-02 2.303263447042568426e-02 4.234831835130971854e-03 1.387987055233096297e-02
6.300000000000000044e-01 6.400000000000000133e-01 1.332024406858675625e-02 2.353689565794019403e-02 4.550485397979722908e-03 1.380189026712786739e-02
6.400000000000000133e-01 6.500000000000000222e-01 1.229556930489179682e-02 2.393203298035321766e-02 4.899746270357166304e-03 1.371775392299313251e-02
6.500000000000000222e-01 6.600000000000000311e-01 1.129188736391926497e-02 2.423626971552392609e-02 5.270070835179092514e-03 1.361699613610816914e-02
6.600000000000000311e-01 6.700000000000000400e-01 1.034400400393435324e-02 2.440001462483406408e-02 5.676305423794608326e-03 1.349930827436195829e-02
6.700000000000000400e-01 6.800000000000000488e-01 9.462811755172204076e-03 2.444352091120719980e-02 6.104130783069287511e-03 1.337023642582323493e-02
6.800000000000000488e-01 6.900000000000000577e-01 8.642731731241531587e-03 2.437552243170776692e-02 6.566117383964274225e-03 1.323513159919625058e-02
6.900000000000000577e-01 7.000000000000000666e-01 7.875151682027422759e-03 2.414330613152411084e-02 7.064104909941320079e-03 1.307406892707345218e-02
7.000000000000000666e-01 7.099999999999999645e-01 7.185247390400033990e-03 2.381913590541858208e-02 7.598340095440951451e-03 1.291966358513818407e-02
7.099999999999999645e-01 7.199999999999999734e-01 6.549273556640153662e-03 2.336948979994388914e-02 8.152892125293652315e-03 1.274751475107705097e-02
7.199999999999999734e-01 7.299999999999999822e-01 5.974840306934024563e-03 2.282419953931344794e-02 8.757742485508750174e-03 1.258024539550223198e-02
7.299999999999999822e-01 7.399999999999999911e-01 5.445674009965668222e-03 2.220710659566422010e-02 9.373451190372876843e-03 1.240726967595272116e-02
7.399999999999999911e-01 7.500000000000000000e-01 4.960955384194356416e-03 2.152101074760150862e-02 1.003386848720391744e-02 1.224066760845376849e-02
7.500000000000000000e-01 7.600000000000000089e-01 4.534367901209726721e-03 2.076788900379569758e-02 1.071191376585450307e-02 1.207644940061457055e-02
7.600000000000000089e-01 7.700000000000000178e-01 4.139899788467186342e-03 1.997437005432295062e-02 1.141155995998401583e-02 1.191641359522358466e-02
7.700000000000000178e-01 7.800000000000000266e-01 3.784643414969799703e-03 1.913860437544152165e-02 1.211463792050186672e-02 1.175613283560257571e-02
7.800000000000000266e-01 7.900000000000000355e-01 3.462313036675976341e-03 1.825691729046864317e-02 1.282555373750256592e-02 1.159380230086083999e-02
7.900000000000000355e-01 8.000000000000000444e-01 3.172551654096525224e-03 1.735895746295249009e-02 1.352977249805141155e-02 1.143438088255774657e-02
8.000000000000000444e-01 8.100000000000000533e-01 2.915609483093503564e-03 1.644973131639957883e-02 1.424556189584374674e-02 1.128578967502804481e-02
8.100000000000000533e-01 8.200000000000000622e-01 2.679377699711834628e-03 1.552469339026312650e-02 1.490858463663286872e-02 1.112086553960040143e-02
8.200000000000000622e-01 8.300000000000000711e-01 2.466136700309130847e-03 1.460339078374922432e-02 1.555876477998344859e-02 1.096038103380331079e-02
8.300000000000000711e-01 8.399999999999999689e-01 2.270227239505106381e-03 1.370420661293002274e-02 1.618921611086871284e-02 1.080635073265813657e-02
8.399999999999999689e-01 8.499999999999999778e-01 2.096806847179551007e-03 1.280422038892910577e-02 1.677914787884461287e-02 1.064574412079749739e-02
8.499999999999999778e-01 8.599999999999999867e-01 1.937641722437717000e-03 1.193284266203666934e-02 1.731390124384912105e-02 1.048082509165201848e-02
8.599999999999999867e-01 8.699999999999999956e-01 1.792873629483163244e-03 1.106955894521923292e-02 1.782561066851231363e-02 1.031556713828517616e-02
8.699999999999999956e-01 8.800000000000000044e-01 1.662918815179341338e-03 1.025507304077367260e-02 1.827538492269184869e-02 1.015069353576853080e-02
8.800000000000000044e-01 8.900000000000000133e-01 1.541350635222540942e-03 9.468640543616664226e-03 1.865501752345480671e-02 9.974361784502581985e-03
8.900000000000000133e-01 9.000000000000000222e-01 1.433410282923791796e-03 8.733164317910697624e-03 1.899007929070700706e-02 9.804604112469327004e-03
9.000000000000000222e-01 9.100000000000000311e-01 1.331043821930234230e-03 8.045234054047273667e-03 1.925208387499935739e-02 9.628043858963325138e-03
9.100000000000000311e-01 9.200000000000000400e-01 1.244072610019856173e-03 7.399624664817952037e-03 1.944500845509815681e-02 9.447471931314215671e-03
9.200000000000000400e-01 9.300000000000000488e-01 1.158538854882688266e-03 6.806612153594787142e-03 1.957959193039343279e-02 9.265403757771841983e-03
9.300000000000000488e-01 9.400000000000000577e-01 1.085234186988283389e-03 6.244580773871491637e-03 1.966130347745980236e-02 9.079936530821064444e-03
9.400000000000000577e-01 9.500000000000000666e-01 1.016142266542236893e-03 5.737814582304282852e-03 1.967250499163608266e-02 8.890676891978709778e-03
9.500000000000000666e-01 9.599999999999999645e-01 9.513003553410068116e-04 5.264583806474661988e-03 1.964432593550051454e-02 8.700816768603467435e-03
9.599999999999999645e-01 9.699999999999999734e-01 8.958079155988292680e-04 4.845890151613395716e-03 1.952600506385515980e-02 8.501982412439835698e-03
9.699999999999999734e-01 9.799999999999999822e-01 8.419578721704338046e-04 4.448537171290544052e-03 1.937102091390359090e-02 8.298509321227423921e-03
9.799999999999999822e-01 9.899999999999999911e-01 7.944994453624904278e-04 4.092477452537842883e-03 1.913864059647791757e-02 8.084935500391778052e-03
9.899999999999999911e-01 1.000000000000000000e+00 7.476614851949993541e-04 3.769164151085324568e-03 1.884763002500952286e-02 7.862823916554288750e-03
1.000000000000000000e+00 1.010000000000000009e+00 7.058969028752923444e-04 3.470455166326961213e-03 1.849349379063059198e-02 7.629375687518265281e-03
1.010000000000000009e+00 1.020000000000000018e+00 6.674588892429227918e-04 3.204168645161491798e-03 1.810203458645681662e-02 7.395344251530786527e-03
1.020000000000000018e+00 1.030000000000000027e+00 6.354506247969330182e-04 2.956567569106122260e-03 1.765990514208809828e-02 7.152625169570266811e-03
1.030000000000000027e+00 1.040000000000000036e+00 6.012458902903359539e-04 2.738501488283831727e-03 1.718829471036128001e-02 6.909189740606678024e-03
1.040000000000000036e+00 1.050000000000000044e+00 5.744074764661653279e-04 2.530348787924571914e-03 1.666849653241228579e-02 6.655258395037375908e-03
1.050000000000000044e+00 1.060000000000000053e+00 5.447909292899135413e-04 2.345293592911829907e-03 1.611508112821434524e-02 6.396861567344151907e-03
1.060000000000000053e+00 1.070000000000000062e+00 5.194093174404065079e-04 2.175619250776403713e-03 1.556200523646389736e-02 6.145136315863910376e-03
1.070000000000000062e+00 1.080000000000000071e+00 4.981910830574127688e-04 2.021535812547128191e-03 1.499841864657895651e-02 5.896473929925850899e-03
1.080000000000000071e+00 1.090000000000000080e+00 4.754878096757278547e-04 1.877415813130905824e-03 1.443065409949324460e-02 5.649270104866475385e-03
1.090000000000000080e+00 1.100000000000000089e+00 4.556998536955281166e-04 1.746713591494579443e-03 1.385650324213943269e-02 5.405380168487575882e-03
1.100000000000000089e+00 1.110000000000000098e+00 4.364293939299955624e-04 1.630158059644737974e-03 1.330220954351927359e-02 5.173108768981910313e-03
1.110000000000000098e+00 1.120000000000000107e+00 4.182386550915406678e-04 1.519200564795306508e-03 1.274921615377431518e-02 4.943511266299279762e-03
1.120000000000000107e+00 1.130000000000000115e+00 4.043480681668936913e-04 1.415444202056236403e-03 1.220793699113304279e-02 4.721687913590963750e-03
1.130000000000000115e+00 1.140000000000000124e+00 3.878611315373375868e-04 1.323163092340614785e-03 1.167069883500036417e-02 4.504238011004882587e-03
1.140000000000000124e+00 1.150000000000000133e+00 3.747599228931149107e-04 1.242465674346954034e-03 1.116214459045684719e-02 4.301455677452649569e-03
1.150000000000000133e+00 1.159999999999999920e+00 3.610016120507580114e-04 1.161761812658388153e-03 1.067115791643584964e-02 4.104375930654846974e-03
1.159999999999999920e+00 1.169999999999999929e+00 3.492329528303235865e-04 1.090829091517520966e-03 1.017712296133780996e-02 3.910205796754520798e-03
1.169999999999999929e+00 1.179999999999999938e+00 3.364056764553380492e-04 1.025664748245057410e-03 9.714035543197276426e-03 3.728057985264199119e-03
1.179999999999999938e+00 1.189999999999999947e+00 3.265045548637971373e-04 9.630034772703831899e-04 9.268008746616126017e-03 3.553456638457966159e-03
1.189999999999999947e+00 1.199999999999999956e+00 3.163860432835550606e-04 9.061778775956640889e-04 8.823194603026829341e-03 3.381155854687079628e-03
1.199999999999999956e+00 1.209999999999999964e+00 3.072619045484428464e-04 8.533293195275895018e-04 8.397668194271398073e-03 3.217016707575866882e-03
1.209999999999999964e+00 1.219999999999999973e+00 2.998865865104995859e-04 8.073053219688423442e-04 8.005315381512922643e-03 3.066922346029015908e-03
1.219999999999999973e+00 1.229999999999999982e+00 2.908364227017975470e-04 7.634598668687820212e-04 7.612593366208964159e-03 2.916889260087953545e-03
1.229999999999999982e+00 1.239999999999999991e+00 2.821594128538825168e-04 7.209732625080826239e-04 7.239833632907523471e-03 2.774161470293066457e-03
1.239999999999999991e+00 1.250000000000000000e+00 2.762961180345530369e-04 6.846081340572920297e-04 6.883898955765839142e-03 2.640081180519727056e-03
1.250000000000000000e+00 1.260000000000000009e+00 2.692532419666387338e-04 6.504634439496249964e-04 6.544103416321990670e-03 2.511800552640346910e-03
1.260000000000000009e+00 1.270000000000000018e+00 2.624489167567755060e-04 6.167881048397093465e-04 6.221191810570504861e-03 2.389444791236810996e-03
1.270000000000000018e+00 1.280000000000000027e+00 2.569333647633463059e-04 5.881671097726466017e-04 5.913865765558759535e-03 2.274461765339080063e-03
1.280000000000000027e+00 1.290000000000000036e+00 2.499660455933353800e-04 5.597001225314077611e-04 5.625656276645223802e-03 2.165497634179541515e-03
1.290000000000000036e+00 1.300000000000000044e+00 2.452273874615226528e-04 5.357977130986237360e-04 5.344782266334423444e-03 2.061268655894768400e-03
1.300000000000000044e+00 1.310000000000000053e+00 2.385903179408414647e-04 5.089454022347624385e-04 5.083351814596126506e-03 1.961978771732325252e-03
1.310000000000000053e+00 1.320000000000000062e+00 2.337309444044380618e-04 4.876518952226907067e-04 4.837835909543760152e-03 1.870501881226109336e-03
1.320000000000000062e+00 1.330000000000000071e+00 2.300698765119943694e-04 4.664312321512734723e-04 4.586712146208323827e-03 1.777551374700117549e-03
1.330000000000000071e+00 1.340000000000000080e+00 2.251873344983087554e-04 4.476361643166531200e-04 4.368291505363661349e-03 1.696037107470705360e-03
1.340000000000000080e+00 1.350000000000000089e+00 2.196455482420877703e-04 4.286996257383205843e-04 4.141054546364169968e-03 1.611289226947293764e-03
1.350000000000000089e+00 1.360000000000000098e+00 2.153922825181564255e-04 4.120116018959578213e-04 3.938146596048718202e-03 1.535916303058070843e-03
1.360000000000000098e+00 1.370000000000000107e+00 2.115840229735908428e-04 3.963032305080001964e-04 3.750527210807235844e-03 1.466169780631525589e-03
1.370000000000000107e+00 1.380000000000000115e+00 2.078537447667393049e-04 3.825927971815624193e-04 3.558078216053070942e-03 1.395493446789690785e-03
1.380000000000000115e+00 1.390000000000000124e+00 2.022938430000419336e-04 3.689125344219440299e-04 3.376303128709640371e-03 1.327826156265520105e-03
1.390000000000000124e+00 1.400000000000000133e+00 2.001595395208601903e-04 3.564864821336192037e-04 3.208481874547183810e-03 1.266401563898947617e-03
1.400000000000000133e+00 1.409999999999999920e+00 1.968239505843775116e-04 3.435741858321634330e-04 3.048480894236147484e-03 1.207056032559333889e-03
1.409999999999999920e+00 1.419999999999999929e+00 1.927499906709053703e-04 3.317761201312156199e-04 2.894228241065189503e-03 1.149780999218004548e-03
1.419999999999999929e+00 1.429999999999999938e+00 1.893814900661203832e-04 3.206030055691250018e-04 2.739967207395355500e-03 1.092943815134686178e-03
1.429999999999999938e+00 1.439999999999999947e+00 1.862304516757820193e-04 3.090429758401761753e-04 2.603819663332815164e-03 1.042150882122272297e-03
1.439999999999999947e+00 1.449999999999999956e+00 1.824358878292906873e-04 3.004548950252843216e-04 2.472905523005905146e-03 9.939108166377120732e-04
1.449999999999999956e+00 1.459999999999999964e+00 1.781138464756192334e-04 2.897360990635060611e-04 2.346194233676698014e-03 9.461978740349479000e-04
1.459999999999999964e+00 1.469999999999999973e+00 1.769649952765607874e-04 2.817010693676939674e-04 2.225625582709994579e-03 9.024940504988721154e-04
1.469999999999999973e+00 1.479999999999999982e+00 1.743600871381454991e-04 2.736833442673869388e-04 2.112844895995067210e-03 8.609445552020429659e-04
1.479999999999999982e+00 1.489999999999999991e+00 1.706400092561846920e-04 2.633163775926106458e-04 2.002917845909801299e-03 8.192020729697024320e-04
1.489999999999999991e+00 1.500000000000000000e+00 1.685369421520794165e-04 2.566979064856612859e-04 1.901460860991129303e-03 7.821027239817727669e-04
1.500000000000000000e+00 1.510000000000000009e+00 1.645263922808393934e-04 2.490370532473313702e-04 1.802458635517032500e-03 7.448567528031128275e-04
1.510000000000000009e+00 1.520000000000000018e+00 1.620149074425496075e-04 2.420526891680244391e-04 1.710091082091619264e-03 7.105636011872193576e-04
1.520000000000000018e+00 1.530000000000000027e+00 1.588868673145057335e-04 2.347122764215335967e-04 1.624397236379851320e-03 6.781979844062639273e-04
1.530000000000000027e+00 1.540000000000000036e+00 1.564908408771916489e-04 2.278600046419502665e-04 1.540594196131352643e-03 6.468728048040404098e-04
1.540000000000000036e+00 1.550000000000000044e+00 1.525082275654649909e-04 2.220345645888563749e-04 1.460910529537017260e-03 6.167627567272287049e-04
1.550000000000000044e+00 1.560000000000000053e+00 1.506633713820478536e-04 2.164733562686752184e-04 1.386477486578228339e-03 5.892091425100049254e-04
1.560000000000000053e+00 1.570000000000000062e+00 1.484906566981818458e-04 2.102701736123810405e-04 1.317705168876323694e-03 5.632398690242716981e-04
1.570000000000000062e+00 1.580000000000000071e+00 1.460846026409368744e-04 2.034996755040637071e-04 1.249193706338258070e-03 5.370914343615940676e-04
1.580000000000000071e+00 1.590000000000000080e+00 1.425123253423639911e-04 1.980913993685097909e-04 1.187115434858142205e-03 5.131879132847039574e-04
1.590000000000000080e+00 1.600000000000000089e+00 1.410379310943761857e-04 1.930799741246929096e-04 1.123414200186232921e-03 4.895563473046948095e-04
1.600000000000000089e+00 1.610000000000000098e+00 1.385870831486300640e-04 1.878430449950236681e-04 1.067421016415048829e-03 4.681271818295922754e-04
1.610000000000000098e+00 1.620000000000000107e+00 1.359378183670547149e-04 1.822802516601757948e-04 1.014911719959920525e-03 4.476974858818627318e-04
1.620000000000000107e+00 1.630000000000000115e+00 1.333142848600769512e-04 1.775922040362934657e-04 9.602529623941008074e-04 4.268461749459866649e-04
1.630000000000000115e+00 1.640000000000000124e+00 1.320218064522144311e-04 1.724555403711213180e-04 9.112693430202116604e-04 4.081910258600901877e-04
1.640000000000000124e+00 1.650000000000000133e+00 1.290283630921319888e-04 1.664121719890328027e-04 8.645283416913919104e-04 3.894308757721285535e-04
1.650000000000000133e+00 1.660000000000000142e+00 1.265482118925718839e-04 1.636079856112609759e-04 8.218167773139372365e-04 3.732857079146674256e-04
1.660000000000000142e+00 1.669999999999999929e+00 1.249614290499495789e-04 1.576121750988251501e-04 7.800752716222217591e-04 3.566856599807429937e-04
1.669999999999999929e+00 1.679999999999999938e+00 1.233424674342000426e-04 1.530980376406566271e-04 7.375250722605583738e-04 3.403010076166391377e-04
1.679999999999999938e+00 1.689999999999999947e+00 1.218219519051423139e-04 1.498837294815020746e-04 6.995649212994535689e-04 3.259323669953306324e-04
1.689999999999999947e+00 1.699999999999999956e+00 1.185658258466370618e-04 1.455498145742316330e-04 6.646345801135395553e-04 3.116410377740478667e-04
1.699999999999999956e+00 1.709999999999999964e+00 1.176369697971906968e-04 1.417183152644359095e-04 6.324108106867198193e-04 2.991909493157890779e-04
1.709999999999999964e+00 1.719999999999999973e+00 1.154223312041531948e-04 1.386679433822420949e-04 5.993355830774919901e-04 2.862966812186698638e-04
1.719999999999999973e+00 1.729999999999999982e+00 1.135774020383391439e-04 1.343862147008941454e-04 5.695046702036195719e-04 2.742021653558556643e-04
1.729999999999999982e+00 1.739999999999999991e+00 1.121941530678424758e-04 1.306697560846403500e-04 5.408947521316292105e-04 2.628600266297029058e-04
1.739999999999999991e+00 1.750000000000000000e+00 1.091525322162174822e-04 1.271023108938726344e-04 5.103747438166904944e-04 2.503826584626447091e-04
1.750000000000000000e+00 1.760000000000000009e+00 1.075301111019383950e-04 1.227121240125359717e-04 4.850870397385959173e-04 2.398551867922111202e-04
1.760000000000000009e+00 1.770000000000000018e+00 1.072724072242074245e-04 1.198150352122851994e-04 4.601080314704516041e-04 2.303797888722698467e-04
1.770000000000000018e+00 1.780000000000000027e+00 1.042876349828757279e-04 1.167112024153090703e-04 4.366644889703619409e-04 2.204613622895205700e-04
1.780000000000000027e+00 1.790000000000000036e+00 1.032683987656891038e-04 1.140583985828572962e-04 4.147285942533503081e-04 2.118447434767602860e-04
1.790000000000000036e+00 1.800000000000000044e+00 1.027226729485843050e-04 1.110192236733809258e-04 3.930482696187752854e-04 2.033389572054428488e-04
